\relax 
\providecommand\hyper@newdestlabel[2]{}
\citation{perlmutter}
\citation{reiss}
\citation{frieman}
\@writefile{toc}{\contentsline {chapter}{\numberline {2}Accelerated Expansion and $\Lambda $CDM Model}{15}{chapter.2}\protected@file@percent }
\@writefile{lof}{\addvspace {10\p@ }}
\@writefile{lot}{\addvspace {10\p@ }}
\@writefile{toc}{\contentsline {section}{\numberline {2.1}Type 1a Supernovae}{16}{section.2.1}\protected@file@percent }
\citation{wmap}
\@writefile{toc}{\contentsline {section}{\numberline {2.2}Lambda-CDM($\Lambda $CDM) Model}{17}{section.2.2}\protected@file@percent }
\citation{ian}
\@writefile{toc}{\contentsline {subsection}{\numberline {2.2.1}Dark Matter}{18}{subsection.2.2.1}\protected@file@percent }
\citation{ian}
\@writefile{toc}{\contentsline {subsubsection}{Evidences of Dark Matter}{19}{section*.7}\protected@file@percent }
\@writefile{toc}{\contentsline {paragraph}{Galaxy rotation Curve:}{19}{section*.9}\protected@file@percent }
\@writefile{toc}{\contentsline {paragraph}{X-Ray Studies of Intergalactic Gas:}{19}{section*.10}\protected@file@percent }
\@writefile{toc}{\contentsline {paragraph}{Gravitational Lensing:}{20}{section*.11}\protected@file@percent }
\@writefile{toc}{\contentsline {subsubsection}{Cosmological Constant as Dark Energy}{20}{section*.12}\protected@file@percent }
\@writefile{toc}{\contentsline {section}{\numberline {2.3}Evolution of Parameters}{21}{section.2.3}\protected@file@percent }
\@writefile{toc}{\contentsline {subsection}{\numberline {2.3.1}Scale Factor, a(t)}{21}{subsection.2.3.1}\protected@file@percent }
\newlabel{sfh}{{2.9}{21}{Scale Factor, a(t)}{equation.2.3.9}{}}
\newlabel{sf}{{2.16}{22}{Scale Factor, a(t)}{equation.2.3.16}{}}
\@writefile{lof}{\contentsline {figure}{\numberline {2.1}{\ignorespaces \footnotesize  {Behavior of scale factor $a(t)$ with time. The continuous line represents the matter dominated case, while the dotted line represents an early matter dominated phase followed by acceleration.}}}{22}{figure.2.1}\protected@file@percent }
\newlabel{fig:Scalefactor}{{2.1}{22}{\footnotesize {Behavior of scale factor $a(t)$ with time. The continuous line represents the matter dominated case, while the dotted line represents an early matter dominated phase followed by acceleration.}}{figure.2.1}{}}
\@writefile{toc}{\contentsline {subsection}{\numberline {2.3.2}Hubble Parameter}{23}{subsection.2.3.2}\protected@file@percent }
\@writefile{lof}{\contentsline {figure}{\numberline {2.2}{\ignorespaces \footnotesize  {The evolution of Hubble parameter with time.}}}{23}{figure.2.2}\protected@file@percent }
\newlabel{Hubbleparameter}{{2.2}{23}{\footnotesize {The evolution of Hubble parameter with time.}}{figure.2.2}{}}
\citation{stern}
\@writefile{lof}{\contentsline {figure}{\numberline {2.3}{\ignorespaces \footnotesize  {Plot of Hubble parameter against red-shift of 12 galaxies. Theoretical evolution of $H$ is given for three different density parameter values, 0.25, 0.27, 0.3. The continuous line shows the theoretical plot and the data points with error bars shows the observational data plot.}}}{24}{figure.2.3}\protected@file@percent }
\newlabel{Hubblered-shift}{{2.3}{24}{\footnotesize {Plot of Hubble parameter against red-shift of 12 galaxies. Theoretical evolution of $H$ is given for three different density parameter values, 0.25, 0.27, 0.3. The continuous line shows the theoretical plot and the data points with error bars shows the observational data plot.}}{figure.2.3}{}}
\@writefile{toc}{\contentsline {subsection}{\numberline {2.3.3}Deceleration Parameter}{25}{subsection.2.3.3}\protected@file@percent }
\newlabel{q}{{2.28}{25}{Deceleration Parameter}{equation.2.3.28}{}}
\citation{alam}
\citation{komatsu}
\@writefile{lof}{\contentsline {figure}{\numberline {2.4}{\ignorespaces \footnotesize  {The plot between deceleration parameter and time.}}}{26}{figure.2.4}\protected@file@percent }
\newlabel{decepa}{{2.4}{26}{\footnotesize {The plot between deceleration parameter and time.}}{figure.2.4}{}}
\@writefile{lof}{\contentsline {figure}{\numberline {2.5}{\ignorespaces \footnotesize  {Plot of deceleration parameter with red-shift.}}}{26}{figure.2.5}\protected@file@percent }
\newlabel{decz}{{2.5}{26}{\footnotesize {Plot of deceleration parameter with red-shift.}}{figure.2.5}{}}
\citation{copland}
\citation{luca}
\citation{sahni}
\citation{kowalski}
\@writefile{toc}{\contentsline {section}{\numberline {2.4}Evaluation of Luminosity Distance vs red-shift}{27}{section.2.4}\protected@file@percent }
\@writefile{lof}{\contentsline {figure}{\numberline {2.6}{\ignorespaces \footnotesize  {Plot of 307 galaxies}}}{27}{figure.2.6}\protected@file@percent }
\newlabel{fig:307plot}{{2.6}{27}{\footnotesize {Plot of 307 galaxies}}{figure.2.6}{}}
\@setckpt{Chapter2/chap2}{
\setcounter{page}{29}
\setcounter{equation}{35}
\setcounter{enumi}{0}
\setcounter{enumii}{0}
\setcounter{enumiii}{0}
\setcounter{enumiv}{0}
\setcounter{footnote}{0}
\setcounter{mpfootnote}{0}
\setcounter{part}{0}
\setcounter{chapter}{2}
\setcounter{section}{4}
\setcounter{subsection}{0}
\setcounter{subsubsection}{0}
\setcounter{paragraph}{0}
\setcounter{subparagraph}{0}
\setcounter{figure}{6}
\setcounter{table}{0}
\setcounter{parentequation}{0}
\setcounter{float@type}{4}
\setcounter{Item}{0}
\setcounter{Hfootnote}{0}
\setcounter{bookmark@seq@number}{25}
\setcounter{section@level}{1}
}
