\relax 
\providecommand\hyper@newdestlabel[2]{}
\bbl@beforestart
\providecommand\HyperFirstAtBeginDocument{\AtBeginDocument}
\HyperFirstAtBeginDocument{\ifx\hyper@anchor\@undefined
\global\let\oldcontentsline\contentsline
\gdef\contentsline#1#2#3#4{\oldcontentsline{#1}{#2}{#3}}
\global\let\oldnewlabel\newlabel
\gdef\newlabel#1#2{\newlabelxx{#1}#2}
\gdef\newlabelxx#1#2#3#4#5#6{\oldnewlabel{#1}{{#2}{#3}}}
\AtEndDocument{\ifx\hyper@anchor\@undefined
\let\contentsline\oldcontentsline
\let\newlabel\oldnewlabel
\fi}
\fi}
\global\let\hyper@last\relax 
\gdef\HyperFirstAtBeginDocument#1{#1}
\providecommand\HyField@AuxAddToFields[1]{}
\providecommand\HyField@AuxAddToCoFields[2]{}
\babel@aux{english}{}
\@writefile{toc}{\contentsline {chapter}{\hbox to\@tempdima {\hfil }Acknowledgements}{i}{Doc-Start}\protected@file@percent }
\@writefile{toc}{\contentsline {chapter}{\hbox to\@tempdima {\hfil }Preface}{ii}{Doc-Start}\protected@file@percent }
\@writefile{toc}{\contentsline {chapter}{\hbox to\@tempdima {\hfil }List of Figures}{v}{chapter*.1}\protected@file@percent }
\@input{Chapter1/chapter1.aux}
\@input{Chapter2/chap2.aux}
\@input{Chapter3/conclusion.aux}
\@input{bibliography/biblio.aux}
\@writefile{toc}{\contentsline {chapter}{\hbox to\@tempdima {\hfil }Appendix}{33}{chapter*.14}\protected@file@percent }
\@writefile{toc}{\contentsline {chapter}{\numberline {A}\large  {The data obtained by Stern et al. from passive evolution of galaxies}}{33}{appendix.A}\protected@file@percent }
\@writefile{lof}{\addvspace {10\p@ }}
\@writefile{lot}{\addvspace {10\p@ }}
\@writefile{toc}{\contentsline {chapter}{\numberline {B}\large  {The data obtained from 307 galaxies}}{34}{appendix.B}\protected@file@percent }
\@writefile{lof}{\addvspace {10\p@ }}
\@writefile{lot}{\addvspace {10\p@ }}
