\relax 
\providecommand\hyper@newdestlabel[2]{}
\bibdata{Project}
\bibcite{liddle1}{1}
\bibcite{roos2}{2}
\bibcite{ryden3}{3}
\bibcite{weinberg4}{4}
\bibcite{kragh5}{5}
\bibcite{carrol6}{6}
\bibcite{stern}{7}
\bibcite{copland}{8}
\bibcite{komatsu}{9}
\bibcite{alam}{10}
\bibcite{ian}{11}
\bibcite{hubble}{12}
\bibcite{wmap}{13}
\bibcite{perlmutter}{14}
\@writefile{toc}{\contentsline {chapter}{\hbox to\@tempdima {\hfil }Bibliography}{31}{chapter*.13}\protected@file@percent }
\bibcite{frieman}{15}
\bibcite{reiss}{16}
\bibcite{luca}{17}
\bibcite{kowalski}{18}
\bibcite{sahni}{19}
\@setckpt{bibliography/biblio}{
\setcounter{page}{33}
\setcounter{equation}{35}
\setcounter{enumi}{0}
\setcounter{enumii}{0}
\setcounter{enumiii}{0}
\setcounter{enumiv}{19}
\setcounter{footnote}{0}
\setcounter{mpfootnote}{0}
\setcounter{part}{0}
\setcounter{chapter}{2}
\setcounter{section}{4}
\setcounter{subsection}{0}
\setcounter{subsubsection}{0}
\setcounter{paragraph}{0}
\setcounter{subparagraph}{0}
\setcounter{figure}{6}
\setcounter{table}{0}
\setcounter{parentequation}{0}
\setcounter{float@type}{4}
\setcounter{Item}{0}
\setcounter{Hfootnote}{0}
\setcounter{bookmark@seq@number}{26}
\setcounter{section@level}{1}
}
