\relax 
\providecommand\hyper@newdestlabel[2]{}
\citation{kragh5}
\citation{kragh5}
\@writefile{toc}{\contentsline {chapter}{\numberline {1}Introduction to Cosmology}{1}{chapter.1}\protected@file@percent }
\@writefile{lof}{\addvspace {10\p@ }}
\@writefile{lot}{\addvspace {10\p@ }}
\@writefile{toc}{\contentsline {section}{\numberline {1.1}History of Cosmology}{1}{section.1.1}\protected@file@percent }
\citation{roos2}
\@writefile{toc}{\contentsline {section}{\numberline {1.2}Modern Cosmology}{2}{section.1.2}\protected@file@percent }
\citation{ian}
\newlabel{hubbleeq}{{1.1}{3}{Modern Cosmology}{equation.1.2.1}{}}
\citation{liddle1}
\citation{hubble}
\citation{wmap}
\@writefile{toc}{\contentsline {subsection}{\numberline {1.2.1}Cosmological red-shift and Expanding Universe}{4}{subsection.1.2.1}\protected@file@percent }
\citation{carrol6}
\@writefile{toc}{\contentsline {subsection}{\numberline {1.2.2}General Theory of Relativity}{5}{subsection.1.2.2}\protected@file@percent }
\newlabel{gtreq}{{1.4}{5}{General Theory of Relativity}{equation.1.2.4}{}}
\citation{roos2}
\newlabel{entmod}{{1.5}{6}{General Theory of Relativity}{equation.1.2.5}{}}
\newlabel{gtreqmod}{{1.6}{6}{General Theory of Relativity}{equation.1.2.6}{}}
\@writefile{toc}{\contentsline {subsection}{\numberline {1.2.3}Friedmann-Lema\^{i}tre-Robertson-Walker Metric}{6}{subsection.1.2.3}\protected@file@percent }
\newlabel{metric1}{{1.7}{6}{Friedmann-Lema\^{i}tre-Robertson-Walker Metric}{equation.1.2.7}{}}
\citation{liddle1}
\newlabel{metric2}{{1.8}{7}{Friedmann-Lema\^{i}tre-Robertson-Walker Metric}{equation.1.2.8}{}}
\newlabel{flrw}{{1.9}{7}{Friedmann-Lema\^{i}tre-Robertson-Walker Metric}{equation.1.2.9}{}}
\@writefile{toc}{\contentsline {subsection}{\numberline {1.2.4}Friedmann Equations}{7}{subsection.1.2.4}\protected@file@percent }
\newlabel{flrweq}{{1.10}{7}{Friedmann Equations}{equation.1.2.10}{}}
\newlabel{acceq}{{1.11}{7}{Friedmann Equations}{equation.1.2.11}{}}
\@writefile{lof}{\contentsline {figure}{\numberline {1.1}{\ignorespaces \footnotesize  {Three possible evolution for Universe for the curvature values, $ k=-1, 0, +1.$}}}{8}{figure.1.1}\protected@file@percent }
\@writefile{toc}{\contentsline {subsubsection}{Fluid Equation}{8}{section*.3}\protected@file@percent }
\citation{liddle1}
\@writefile{toc}{\contentsline {subsubsection}{Hubble's law and red-shift in terms of scale factor}{9}{section*.4}\protected@file@percent }
\@writefile{toc}{\contentsline {subsection}{\numberline {1.2.5}Solving Friedmann equations}{9}{subsection.1.2.5}\protected@file@percent }
\citation{liddle1}
\@writefile{toc}{\contentsline {subsubsection}{Matter Dominated}{10}{section*.5}\protected@file@percent }
\@writefile{toc}{\contentsline {subsubsection}{Radiation Dominated}{10}{section*.6}\protected@file@percent }
\@writefile{lof}{\contentsline {figure}{\numberline {1.2}{\ignorespaces \footnotesize  {Evolution of universe containing radiation and matter. Once matter come to dominate the expansion rate speeds up and density falls quickly with time$($Source: A.Liddle$)$}}}{11}{figure.1.2}\protected@file@percent }
\newlabel{lid}{{1.2}{11}{\footnotesize {Evolution of universe containing radiation and matter. Once matter come to dominate the expansion rate speeds up and density falls quickly with time$($Source: A.Liddle$)$}}{figure.1.2}{}}
\@writefile{toc}{\contentsline {subsection}{\numberline {1.2.6}de Sitter universe}{11}{subsection.1.2.6}\protected@file@percent }
\citation{weinberg4}
\citation{liddle1}
\@writefile{toc}{\contentsline {section}{\numberline {1.3}Observational Parameters}{12}{section.1.3}\protected@file@percent }
\@writefile{toc}{\contentsline {subsection}{\numberline {1.3.1}Density Parameter}{12}{subsection.1.3.1}\protected@file@percent }
\citation{komatsu}
\citation{wmap}
\@writefile{toc}{\contentsline {subsection}{\numberline {1.3.2}Decceleration Parameter}{13}{subsection.1.3.2}\protected@file@percent }
\@writefile{toc}{\contentsline {subsection}{\numberline {1.3.3}Hubble Parameter}{14}{subsection.1.3.3}\protected@file@percent }
\@setckpt{Chapter1/chapter1}{
\setcounter{page}{15}
\setcounter{equation}{36}
\setcounter{enumi}{0}
\setcounter{enumii}{0}
\setcounter{enumiii}{0}
\setcounter{enumiv}{0}
\setcounter{footnote}{0}
\setcounter{mpfootnote}{0}
\setcounter{part}{0}
\setcounter{chapter}{1}
\setcounter{section}{3}
\setcounter{subsection}{3}
\setcounter{subsubsection}{0}
\setcounter{paragraph}{0}
\setcounter{subparagraph}{0}
\setcounter{figure}{2}
\setcounter{table}{0}
\setcounter{parentequation}{0}
\setcounter{float@type}{4}
\setcounter{Item}{0}
\setcounter{Hfootnote}{0}
\setcounter{bookmark@seq@number}{16}
\setcounter{section@level}{2}
}
